{
  "axes": [],
  "data": [
    {
      "name": "table",
      "values": [
        {
          "x": 1073.0,
          "y": 650.0
        },
        {
          "x": 1073.0,
          "y": 630.0
        },
        {
          "x": 1073.0,
          "y": 630.0
        },
        {
          "x": 1073.0,
          "y": 560.0
        },
        {
          "x": 1089.0,
          "y": 640.0
        },
        {
          "x": 1089.0,
          "y": 480.0
        },
        {
          "x": 1101.0,
          "y": 460.0
        },
        {
          "x": 1101.0,
          "y": 580.0
        },
        {
          "x": 1101.0,
          "y": 600.0
        },
        {
          "x": 1125.0,
          "y": 630.0
        },
        {
          "x": 1125.0,
          "y": 410.0
        },
        {
          "x": 1081.0,
          "y": 630.0
        },
        {
          "x": 1015.0,
          "y": 510.0
        },
        {
          "x": 1077.0,
          "y": 640.0
        },
        {
          "x": 1097.0,
          "y": 600.0
        },
        {
          "x": 1087.0,
          "y": 510.0
        },
        {
          "x": 2020.0,
          "y": 570.0
        },
        {
          "x": 2020.0,
          "y": 560.0
        },
        {
          "x": 2090.0,
          "y": 590.0
        },
        {
          "x": 2110.0,
          "y": 570.0
        },
        {
          "x": 4013.0,
          "y": 620.0
        },
        {
          "x": 4013.0,
          "y": 570.0
        },
        {
          "x": 4013.0,
          "y": 610.0
        },
        {
          "x": 4013.0,
          "y": 540.0
        },
        {
          "x": 4019.0,
          "y": 630.0
        },
        {
          "x": 4019.0,
          "y": 540.0
        },
        {
          "x": 4025.0,
          "y": 640.0
        },
        {
          "x": 4025.0,
          "y": 610.0
        },
        {
          "x": 4005.0,
          "y": 530.0
        },
        {
          "x": 5063.0,
          "y": 600.0
        },
        {
          "x": 5143.0,
          "y": 650.0
        },
        {
          "x": 5069.0,
          "y": 495.0
        },
        {
          "x": 5115.0,
          "y": 565.0
        },
        {
          "x": 5119.0,
          "y": 530.0
        },
        {
          "x": 5119.0,
          "y": 440.0
        },
        {
          "x": 5145.0,
          "y": 630.0
        },
        {
          "x": 5045.0,
          "y": 660.0
        },
        {
          "x": 5007.0,
          "y": 650.0
        },
        {
          "x": 5071.0,
          "y": 630.0
        },
        {
          "x": 5027.0,
          "y": 620.0
        },
        {
          "x": 6037.0,
          "y": 600.0
        },
        {
          "x": 6037.0,
          "y": 620.0
        },
        {
          "x": 6037.0,
          "y": 800.0
        },
        {
          "x": 6037.0,
          "y": 600.0
        },
        {
          "x": 6037.0,
          "y": 470.0
        },
        {
          "x": 6037.0,
          "y": 580.0
        },
        {
          "x": 6037.0,
          "y": 530.0
        },
        {
          "x": 6037.0,
          "y": 550.0
        },
        {
          "x": 6037.0,
          "y": 730.0
        },
        {
          "x": 6037.0,
          "y": 800.0
        },
        {
          "x": 6037.0,
          "y": 640.0
        },
        {
          "x": 6037.0,
          "y": 540.0
        },
        {
          "x": 6037.0,
          "y": 570.0
        },
        {
          "x": 6037.0,
          "y": 630.0
        },
        {
          "x": 6037.0,
          "y": 640.0
        },
        {
          "x": 6037.0,
          "y": 510.0
        },
        {
          "x": 6037.0,
          "y": 690.0
        },
        {
          "x": 6037.0,
          "y": 580.0
        },
        {
          "x": 6037.0,
          "y": 650.0
        },
        {
          "x": 6037.0,
          "y": 760.0
        },
        {
          "x": 6037.0,
          "y": 700.0
        },
        {
          "x": 6037.0,
          "y": 600.0
        },
        {
          "x": 6037.0,
          "y": 740.0
        },
        {
          "x": 6037.0,
          "y": 590.0
        },
        {
          "x": 6037.0,
          "y": 550.0
        },
        {
          "x": 6087.0,
          "y": 510.0
        },
        {
          "x": 6087.0,
          "y": 640.0
        },
        {
          "x": 6065.0,
          "y": 520.0
        },
        {
          "x": 6065.0,
          "y": 630.0
        },
        {
          "x": 6065.0,
          "y": 530.0
        },
        {
          "x": 6111.0,
          "y": 610.0
        },
        {
          "x": 6111.0,
          "y": 660.0
        },
        {
          "x": 6079.0,
          "y": 670.0
        },
        {
          "x": 6029.0,
          "y": 550.0
        },
        {
          "x": 6071.0,
          "y": 520.0
        },
        {
          "x": 6071.0,
          "y": 630.0
        },
        {
          "x": 6007.0,
          "y": 580.0
        },
        {
          "x": 6019.0,
          "y": 550.0
        },
        {
          "x": 6019.0,
          "y": 580.0
        },
        {
          "x": 6001.0,
          "y": 560.0
        },
        {
          "x": 6001.0,
          "y": 740.0
        },
        {
          "x": 6001.0,
          "y": 502.0
        },
        {
          "x": 6001.0,
          "y": 590.0
        },
        {
          "x": 6067.0,
          "y": 550.0
        },
        {
          "x": 6113.0,
          "y": 670.0
        },
        {
          "x": 6073.0,
          "y": 710.0
        },
        {
          "x": 6073.0,
          "y": 530.0
        },
        {
          "x": 6073.0,
          "y": 620.0
        },
        {
          "x": 6073.0,
          "y": 600.0
        },
        {
          "x": 6073.0,
          "y": 650.0
        },
        {
          "x": 6083.0,
          "y": 670.0
        },
        {
          "x": 6083.0,
          "y": 660.0
        },
        {
          "x": 6095.0,
          "y": 610.0
        },
        {
          "x": 6041.0,
          "y": 550.0
        },
        {
          "x": 6023.0,
          "y": 570.0
        },
        {
          "x": 6081.0,
          "y": 540.0
        },
        {
          "x": 6077.0,
          "y": 670.0
        },
        {
          "x": 6075.0,
          "y": 538.0
        },
        {
          "x": 6075.0,
          "y": 570.0
        },
        {
          "x": 6075.0,
          "y": 610.0
        },
        {
          "x": 6085.0,
          "y": 570.0
        },
        {
          "x": 6085.0,
          "y": 670.0
        },
        {
          "x": 6085.0,
          "y": 780.0
        },
        {
          "x": 6089.0,
          "y": 560.0
        },
        {
          "x": 6013.0,
          "y": 600.0
        },
        {
          "x": 6097.0,
          "y": 570.0
        },
        {
          "x": 6059.0,
          "y": 560.0
        },
        {
          "x": 6059.0,
          "y": 718.0
        },
        {
          "x": 8003.0,
          "y": 540.0
        },
        {
          "x": 8031.0,
          "y": 600.0
        },
        {
          "x": 8031.0,
          "y": 650.0
        },
        {
          "x": 8031.0,
          "y": 550.0
        },
        {
          "x": 8041.0,
          "y": 610.0
        },
        {
          "x": 8041.0,
          "y": 690.0
        },
        {
          "x": 8013.0,
          "y": 650.0
        },
        {
          "x": 8013.0,
          "y": 550.0
        },
        {
          "x": 8059.0,
          "y": 590.0
        },
        {
          "x": 8059.0,
          "y": 690.0
        },
        {
          "x": 8069.0,
          "y": 620.0
        },
        {
          "x": 8067.0,
          "y": 560.0
        },
        {
          "x": 8077.0,
          "y": 540.0
        },
        {
          "x": 8123.0,
          "y": 580.0
        },
        {
          "x": 8001.0,
          "y": 590.0
        },
        {
          "x": 8101.0,
          "y": 550.0
        },
        {
          "x": 9009.0,
          "y": 440.0
        },
        {
          "x": 9009.0,
          "y": 580.0
        },
        {
          "x": 9009.0,
          "y": 610.0
        },
        {
          "x": 9009.0,
          "y": 510.0
        },
        {
          "x": 9009.0,
          "y": 790.0
        },
        {
          "x": 9009.0,
          "y": 570.0
        },
        {
          "x": 9001.0,
          "y": 490.0
        },
        {
          "x": 9001.0,
          "y": 550.0
        },
        {
          "x": 9001.0,
          "y": 540.0
        },
        {
          "x": 9003.0,
          "y": 570.0
        },
        {
          "x": 9003.0,
          "y": 580.0
        },
        {
          "x": 9003.0,
          "y": 548.0
        },
        {
          "x": 9003.0,
          "y": 700.0
        },
        {
          "x": 9011.0,
          "y": 690.0
        },
        {
          "x": 9011.0,
          "y": 520.0
        },
        {
          "x": 9011.0,
          "y": 570.0
        },
        {
          "x": 9015.0,
          "y": 550.0
        },
        {
          "x": 10001.0,
          "y": 460.0
        },
        {
          "x": 10001.0,
          "y": 500.0
        },
        {
          "x": 10003.0,
          "y": 660.0
        },
        {
          "x": 11001.0,
          "y": 670.0
        },
        {
          "x": 11001.0,
          "y": 620.0
        },
        {
          "x": 11001.0,
          "y": 540.0
        },
        {
          "x": 11001.0,
          "y": 690.0
        },
        {
          "x": 11001.0,
          "y": 740.0
        },
        {
          "x": 11001.0,
          "y": 680.0
        },
        {
          "x": 12063.0,
          "y": 590.0
        },
        {
          "x": 12099.0,
          "y": 510.0
        },
        {
          "x": 12099.0,
          "y": 570.0
        },
        {
          "x": 12099.0,
          "y": 530.0
        },
        {
          "x": 12099.0,
          "y": 580.0
        },
        {
          "x": 12095.0,
          "y": 640.0
        },
        {
          "x": 12095.0,
          "y": 640.0
        },
        {
          "x": 12103.0,
          "y": 610.0
        },
        {
          "x": 12073.0,
          "y": 510.0
        },
        {
          "x": 12073.0,
          "y": 630.0
        },
        {
          "x": 12109.0,
          "y": 590.0
        },
        {
          "x": 12057.0,
          "y": 610.0
        },
        {
          "x": 12057.0,
          "y": 610.0
        },
        {
          "x": 12057.0,
          "y": 580.0
        },
        {
          "x": 12009.0,
          "y": 660.0
        },
        {
          "x": 12105.0,
          "y": 570.0
        },
        {
          "x": 12105.0,
          "y": 613.0
        },
        {
          "x": 12105.0,
          "y": 528.0
        },
        {
          "x": 12001.0,
          "y": 690.0
        },
        {
          "x": 12085.0,
          "y": 570.0
        },
        {
          "x": 12031.0,
          "y": 560.0
        },
        {
          "x": 12031.0,
          "y": 610.0
        },
        {
          "x": 12031.0,
          "y": 500.0
        },
        {
          "x": 12011.0,
          "y": 560.0
        },
        {
          "x": 12101.0,
          "y": 550.0
        },
        {
          "x": 12101.0,
          "y": 560.0
        },
        {
          "x": 12127.0,
          "y": 610.0
        },
        {
          "x": 12033.0,
          "y": 570.0
        },
        {
          "x": 13089.0,
          "y": 630.0
        },
        {
          "x": 13089.0,
          "y": 740.0
        },
        {
          "x": 13089.0,
          "y": 600.0
        },
        {
          "x": 13095.0,
          "y": 490.0
        },
        {
          "x": 13095.0,
          "y": 490.0
        },
        {
          "x": 13051.0,
          "y": 550.0
        },
        {
          "x": 13051.0,
          "y": 580.0
        },
        {
          "x": 13051.0,
          "y": 480.0
        },
        {
          "x": 13121.0,
          "y": 540.0
        },
        {
          "x": 13121.0,
          "y": 575.0
        },
        {
          "x": 13121.0,
          "y": 540.0
        },
        {
          "x": 13121.0,
          "y": 720.0
        },
        {
          "x": 13121.0,
          "y": 590.0
        },
        {
          "x": 13121.0,
          "y": 590.0
        },
        {
          "x": 13121.0,
          "y": 570.0
        },
        {
          "x": 13245.0,
          "y": 540.0
        },
        {
          "x": 13245.0,
          "y": 430.0
        },
        {
          "x": 13115.0,
          "y": 630.0
        },
        {
          "x": 13139.0,
          "y": 540.0
        },
        {
          "x": 13209.0,
          "y": 530.0
        },
        {
          "x": 13063.0,
          "y": 530.0
        },
        {
          "x": 13215.0,
          "y": 540.0
        },
        {
          "x": 13083.0,
          "y": 640.0
        },
        {
          "x": 13119.0,
          "y": 550.0
        },
        {
          "x": 13225.0,
          "y": 590.0
        },
        {
          "x": 13261.0,
          "y": 520.0
        },
        {
          "x": 13009.0,
          "y": 600.0
        },
        {
          "x": 13031.0,
          "y": 590.0
        },
        {
          "x": 13059.0,
          "y": 670.0
        },
        {
          "x": 13067.0,
          "y": 570.0
        },
        {
          "x": 13067.0,
          "y": 510.0
        },
        {
          "x": 13067.0,
          "y": 620.0
        },
        {
          "x": 13285.0,
          "y": 570.0
        },
        {
          "x": 13021.0,
          "y": 510.0
        },
        {
          "x": 13021.0,
          "y": 640.0
        },
        {
          "x": 13021.0,
          "y": 570.0
        },
        {
          "x": 13187.0,
          "y": 570.0
        },
        {
          "x": 13137.0,
          "y": 560.0
        },
        {
          "x": 13057.0,
          "y": 520.0
        },
        {
          "x": 13257.0,
          "y": 570.0
        },
        {
          "x": 13311.0,
          "y": 510.0
        },
        {
          "x": 13185.0,
          "y": 560.0
        },
        {
          "x": 13045.0,
          "y": 550.0
        },
        {
          "x": 13281.0,
          "y": 560.0
        },
        {
          "x": 15003.0,
          "y": 530.0
        },
        {
          "x": 15003.0,
          "y": 620.0
        },
        {
          "x": 15003.0,
          "y": 570.0
        },
        {
          "x": 15003.0,
          "y": 570.0
        },
        {
          "x": 15001.0,
          "y": 570.0
        },
        {
          "x": 16001.0,
          "y": 540.0
        },
        {
          "x": 16001.0,
          "y": 575.0
        },
        {
          "x": 16027.0,
          "y": 630.0
        },
        {
          "x": 16069.0,
          "y": 550.0
        },
        {
          "x": 17031.0,
          "y": 620.0
        },
        {
          "x": 17031.0,
          "y": 780.0
        },
        {
          "x": 17031.0,
          "y": 600.0
        },
        {
          "x": 17031.0,
          "y": 620.0
        },
        {
          "x": 17031.0,
          "y": 635.0
        },
        {
          "x": 17031.0,
          "y": 710.0
        },
        {
          "x": 17031.0,
          "y": 543.0
        },
        {
          "x": 17031.0,
          "y": 640.0
        },
        {
          "x": 17031.0,
          "y": 620.0
        },
        {
          "x": 17031.0,
          "y": 760.0
        },
        {
          "x": 17031.0,
          "y": 670.0
        },
        {
          "x": 17031.0,
          "y": 590.0
        },
        {
          "x": 17031.0,
          "y": 610.0
        },
        {
          "x": 17031.0,
          "y": 570.0
        },
        {
          "x": 17031.0,
          "y": 630.0
        },
        {
          "x": 17031.0,
          "y": 600.0
        },
        {
          "x": 17089.0,
          "y": 560.0
        },
        {
          "x": 17143.0,
          "y": 610.0
        },
        {
          "x": 17043.0,
          "y": 620.0
        },
        {
          "x": 17043.0,
          "y": 620.0
        },
        {
          "x": 17043.0,
          "y": 700.0
        },
        {
          "x": 17203.0,
          "y": 590.0
        },
        {
          "x": 17005.0,
          "y": 570.0
        },
        {
          "x": 17019.0,
          "y": 730.0
        },
        {
          "x": 17113.0,
          "y": 680.0
        },
        {
          "x": 17137.0,
          "y": 700.0
        },
        {
          "x": 17097.0,
          "y": 630.0
        },
        {
          "x": 17097.0,
          "y": 620.0
        },
        {
          "x": 17107.0,
          "y": 430.0
        },
        {
          "x": 17163.0,
          "y": 600.0
        },
        {
          "x": 17115.0,
          "y": 620.0
        },
        {
          "x": 17187.0,
          "y": 650.0
        },
        {
          "x": 17037.0,
          "y": 640.0
        },
        {
          "x": 17001.0,
          "y": 590.0
        },
        {
          "x": 17201.0,
          "y": 505.0
        },
        {
          "x": 17077.0,
          "y": 610.0
        },
        {
          "x": 18095.0,
          "y": 580.0
        },
        {
          "x": 18035.0,
          "y": 570.0
        },
        {
          "x": 18097.0,
          "y": 650.0
        },
        {
          "x": 18097.0,
          "y": 560.0
        },
        {
          "x": 18097.0,
          "y": 570.0
        },
        {
          "x": 18097.0,
          "y": 560.0
        },
        {
          "x": 18133.0,
          "y": 660.0
        },
        {
          "x": 18177.0,
          "y": 650.0
        },
        {
          "x": 18177.0,
          "y": 500.0
        },
        {
          "x": 18163.0,
          "y": 630.0
        },
        {
          "x": 18163.0,
          "y": 540.0
        },
        {
          "x": 18003.0,
          "y": 620.0
        },
        {
          "x": 18003.0,
          "y": 550.0
        },
        {
          "x": 18003.0,
          "y": 570.0
        },
        {
          "x": 18003.0,
          "y": 550.0
        },
        {
          "x": 18081.0,
          "y": 570.0
        },
        {
          "x": 18039.0,
          "y": 640.0
        },
        {
          "x": 18085.0,
          "y": 610.0
        },
        {
          "x": 18077.0,
          "y": 650.0
        },
        {
          "x": 18141.0,
          "y": 465.0
        },
        {
          "x": 18141.0,
          "y": 530.0
        },
        {
          "x": 18141.0,
          "y": 760.0
        },
        {
          "x": 18141.0,
          "y": 620.0
        },
        {
          "x": 18069.0,
          "y": 620.0
        },
        {
          "x": 18167.0,
          "y": 530.0
        },
        {
          "x": 18167.0,
          "y": 720.0
        },
        {
          "x": 18167.0,
          "y": 530.0
        },
        {
          "x": 18067.0,
          "y": 530.0
        },
        {
          "x": 18105.0,
          "y": 630.0
        },
        {
          "x": 18089.0,
          "y": 510.0
        },
        {
          "x": 18089.0,
          "y": 510.0
        },
        {
          "x": 18043.0,
          "y": 520.0
        },
        {
          "x": 18169.0,
          "y": 590.0
        },
        {
          "x": 18053.0,
          "y": 610.0
        },
        {
          "x": 18053.0,
          "y": 670.0
        },
        {
          "x": 18051.0,
          "y": 550.0
        },
        {
          "x": 18091.0,
          "y": 540.0
        },
        {
          "x": 18073.0,
          "y": 550.0
        },
        {
          "x": 18157.0,
          "y": 530.0
        },
        {
          "x": 18157.0,
          "y": 650.0
        },
        {
          "x": 18151.0,
          "y": 620.0
        },
        {
          "x": 18127.0,
          "y": 650.0
        },
        {
          "x": 18107.0,
          "y": 653.0
        },
        {
          "x": 19021.0,
          "y": 510.0
        },
        {
          "x": 19125.0,
          "y": 610.0
        },
        {
          "x": 19061.0,
          "y": 678.0
        },
        {
          "x": 19061.0,
          "y": 550.0
        },
        {
          "x": 19061.0,
          "y": 615.0
        },
        {
          "x": 19113.0,
          "y": 678.0
        },
        {
          "x": 19113.0,
          "y": 670.0
        },
        {
          "x": 19167.0,
          "y": 600.0
        },
        {
          "x": 19153.0,
          "y": 670.0
        },
        {
          "x": 19153.0,
          "y": 540.0
        },
        {
          "x": 19053.0,
          "y": 550.0
        },
        {
          "x": 19157.0,
          "y": 730.0
        },
        {
          "x": 19169.0,
          "y": 690.0
        },
        {
          "x": 19087.0,
          "y": 490.0
        },
        {
          "x": 19103.0,
          "y": 670.0
        },
        {
          "x": 19191.0,
          "y": 650.0
        },
        {
          "x": 19013.0,
          "y": 660.0
        },
        {
          "x": 19065.0,
          "y": 525.0
        },
        {
          "x": 19123.0,
          "y": 620.0
        },
        {
          "x": 19123.0,
          "y": 480.0
        },
        {
          "x": 19017.0,
          "y": 670.0
        },
        {
          "x": 20045.0,
          "y": 620.0
        },
        {
          "x": 20005.0,
          "y": 605.0
        },
        {
          "x": 20113.0,
          "y": 550.0
        },
        {
          "x": 20113.0,
          "y": 500.0
        },
        {
          "x": 20113.0,
          "y": 540.0
        },
        {
          "x": 20079.0,
          "y": 680.0
        },
        {
          "x": 20173.0,
          "y": 530.0
        },
        {
          "x": 20173.0,
          "y": 560.0
        },
        {
          "x": 20169.0,
          "y": 560.0
        },
        {
          "x": 20091.0,
          "y": 480.0
        },
        {
          "x": 20059.0,
          "y": 530.0
        },
        {
          "x": 20103.0,
          "y": 510.0
        },
        {
          "x": 20035.0,
          "y": 500.0
        },
        {
          "x": 20159.0,
          "y": 540.0
        },
        {
          "x": 20115.0,
          "y": 580.0
        },
        {
          "x": 21119.0,
          "y": 530.0
        },
        {
          "x": 21113.0,
          "y": 650.0
        },
        {
          "x": 21111.0,
          "y": 628.0
        },
        {
          "x": 21111.0,
          "y": 640.0
        },
        {
          "x": 21111.0,
          "y": 483.0
        },
        {
          "x": 21151.0,
          "y": 613.0
        },
        {
          "x": 21059.0,
          "y": 530.0
        },
        {
          "x": 21059.0,
          "y": 530.0
        },
        {
          "x": 21217.0,
          "y": 600.0
        },
        {
          "x": 21021.0,
          "y": 670.0
        },
        {
          "x": 21235.0,
          "y": 580.0
        },
        {
          "x": 21209.0,
          "y": 560.0
        },
        {
          "x": 21073.0,
          "y": 480.0
        },
        {
          "x": 21043.0,
          "y": 550.0
        },
        {
          "x": 21083.0,
          "y": 580.0
        },
        {
          "x": 21205.0,
          "y": 550.0
        },
        {
          "x": 21117.0,
          "y": 610.0
        },
        {
          "x": 21067.0,
          "y": 637.0
        },
        {
          "x": 21121.0,
          "y": 507.0
        },
        {
          "x": 22017.0,
          "y": 620.0
        },
        {
          "x": 22017.0,
          "y": 490.0
        },
        {
          "x": 22071.0,
          "y": 450.0
        },
        {
          "x": 22071.0,
          "y": 650.0
        },
        {
          "x": 22071.0,
          "y": 620.0
        },
        {
          "x": 22071.0,
          "y": 700.0
        },
        {
          "x": 22071.0,
          "y": 530.0
        },
        {
          "x": 22033.0,
          "y": 660.0
        },
        {
          "x": 22033.0,
          "y": 480.0
        },
        {
          "x": 22079.0,
          "y": 610.0
        },
        {
          "x": 22073.0,
          "y": 490.0
        },
        {
          "x": 22069.0,
          "y": 550.0
        },
        {
          "x": 23005.0,
          "y": 730.0
        },
        {
          "x": 23005.0,
          "y": 580.0
        },
        {
          "x": 23005.0,
          "y": 540.0
        },
        {
          "x": 23005.0,
          "y": 540.0
        },
        {
          "x": 23001.0,
          "y": 590.0
        },
        {
          "x": 23011.0,
          "y": 720.0
        },
        {
          "x": 23011.0,
          "y": 530.0
        },
        {
          "x": 23029.0,
          "y": 520.0
        },
        {
          "x": 23019.0,
          "y": 600.0
        },
        {
          "x": 23031.0,
          "y": 580.0
        },
        {
          "x": 24033.0,
          "y": 599.0
        },
        {
          "x": 24033.0,
          "y": 510.0
        },
        {
          "x": 24033.0,
          "y": 710.0
        },
        {
          "x": 24033.0,
          "y": 510.0
        },
        {
          "x": 24031.0,
          "y": 478.0
        },
        {
          "x": 24001.0,
          "y": 540.0
        },
        {
          "x": 24005.0,
          "y": 630.0
        },
        {
          "x": 24005.0,
          "y": 570.0
        },
        {
          "x": 24021.0,
          "y": 600.0
        },
        {
          "x": 24021.0,
          "y": 580.0
        },
        {
          "x": 24510.0,
          "y": 760.0
        },
        {
          "x": 24510.0,
          "y": 650.0
        },
        {
          "x": 24510.0,
          "y": 630.0
        },
        {
          "x": 24510.0,
          "y": 550.0
        },
        {
          "x": 24039.0,
          "y": 460.0
        },
        {
          "x": 24045.0,
          "y": 600.0
        },
        {
          "x": 24037.0,
          "y": 650.0
        },
        {
          "x": 24029.0,
          "y": 610.0
        },
        {
          "x": 24013.0,
          "y": 620.0
        },
        {
          "x": 25013.0,
          "y": 570.0
        },
        {
          "x": 25013.0,
          "y": 540.0
        },
        {
          "x": 25013.0,
          "y": 520.0
        },
        {
          "x": 25013.0,
          "y": 570.0
        },
        {
          "x": 25013.0,
          "y": 590.0
        },
        {
          "x": 25013.0,
          "y": 540.0
        },
        {
          "x": 25003.0,
          "y": 760.0
        },
        {
          "x": 25003.0,
          "y": 660.0
        },
        {
          "x": 25003.0,
          "y": 590.0
        },
        {
          "x": 25003.0,
          "y": 668.0
        },
        {
          "x": 25003.0,
          "y": 760.0
        },
        {
          "x": 25027.0,
          "y": 520.0
        },
        {
          "x": 25027.0,
          "y": 590.0
        },
        {
          "x": 25027.0,
          "y": 640.0
        },
        {
          "x": 25027.0,
          "y": 560.0
        },
        {
          "x": 25027.0,
          "y": 720.0
        },
        {
          "x": 25027.0,
          "y": 560.0
        },
        {
          "x": 25025.0,
          "y": 540.0
        },
        {
          "x": 25025.0,
          "y": 690.0
        },
        {
          "x": 25025.0,
          "y": 640.0
        },
        {
          "x": 25025.0,
          "y": 570.0
        },
        {
          "x": 25025.0,
          "y": 570.0
        },
        {
          "x": 25025.0,
          "y": 580.0
        },
        {
          "x": 25025.0,
          "y": 560.0
        },
        {
          "x": 25025.0,
          "y": 603.0
        },
        {
          "x": 25025.0,
          "y": 680.0
        },
        {
          "x": 25025.0,
          "y": 590.0
        },
        {
          "x": 25025.0,
          "y": 550.0
        },
        {
          "x": 25025.0,
          "y": 550.0
        },
        {
          "x": 25021.0,
          "y": 538.0
        },
        {
          "x": 25021.0,
          "y": 490.0
        },
        {
          "x": 25021.0,
          "y": 560.0
        },
        {
          "x": 25009.0,
          "y": 560.0
        },
        {
          "x": 25009.0,
          "y": 640.0
        },
        {
          "x": 25009.0,
          "y": 590.0
        },
        {
          "x": 25009.0,
          "y": 530.0
        },
        {
          "x": 25017.0,
          "y": 570.0
        },
        {
          "x": 25017.0,
          "y": 790.0
        },
        {
          "x": 25017.0,
          "y": 550.0
        },
        {
          "x": 25017.0,
          "y": 550.0
        },
        {
          "x": 25017.0,
          "y": 590.0
        },
        {
          "x": 25017.0,
          "y": 800.0
        },
        {
          "x": 25017.0,
          "y": 740.0
        },
        {
          "x": 25015.0,
          "y": 640.0
        },
        {
          "x": 25015.0,
          "y": 670.0
        },
        {
          "x": 25001.0,
          "y": 600.0
        },
        {
          "x": 25005.0,
          "y": 590.0
        },
        {
          "x": 25005.0,
          "y": 630.0
        },
        {
          "x": 26025.0,
          "y": 655.0
        },
        {
          "x": 26025.0,
          "y": 520.0
        },
        {
          "x": 26057.0,
          "y": 630.0
        },
        {
          "x": 26021.0,
          "y": 590.0
        },
        {
          "x": 26073.0,
          "y": 580.0
        },
        {
          "x": 26161.0,
          "y": 640.0
        },
        {
          "x": 26161.0,
          "y": 570.0
        },
        {
          "x": 26161.0,
          "y": 730.0
        },
        {
          "x": 26163.0,
          "y": 630.0
        },
        {
          "x": 26163.0,
          "y": 630.0
        },
        {
          "x": 26163.0,
          "y": 630.0
        },
        {
          "x": 26163.0,
          "y": 640.0
        },
        {
          "x": 26163.0,
          "y": 640.0
        },
        {
          "x": 26163.0,
          "y": 640.0
        },
        {
          "x": 26049.0,
          "y": 680.0
        },
        {
          "x": 26049.0,
          "y": 583.0
        },
        {
          "x": 26081.0,
          "y": 540.0
        },
        {
          "x": 26139.0,
          "y": 670.0
        },
        {
          "x": 26125.0,
          "y": 630.0
        },
        {
          "x": 26065.0,
          "y": 660.0
        },
        {
          "x": 26061.0,
          "y": 770.0
        },
        {
          "x": 26061.0,
          "y": 770.0
        },
        {
          "x": 26111.0,
          "y": 530.0
        },
        {
          "x": 26091.0,
          "y": 410.0
        },
        {
          "x": 26075.0,
          "y": 570.0
        },
        {
          "x": 27053.0,
          "y": 635.0
        },
        {
          "x": 27053.0,
          "y": 690.0
        },
        {
          "x": 27053.0,
          "y": 653.0
        },
        {
          "x": 27053.0,
          "y": 560.0
        },
        {
          "x": 27053.0,
          "y": 595.0
        },
        {
          "x": 27123.0,
          "y": 670.0
        },
        {
          "x": 27123.0,
          "y": 610.0
        },
        {
          "x": 27123.0,
          "y": 640.0
        },
        {
          "x": 27123.0,
          "y": 710.0
        },
        {
          "x": 27123.0,
          "y": 620.0
        },
        {
          "x": 27123.0,
          "y": 640.0
        },
        {
          "x": 27123.0,
          "y": 600.0
        },
        {
          "x": 27131.0,
          "y": 740.0
        },
        {
          "x": 27131.0,
          "y": 700.0
        },
        {
          "x": 27103.0,
          "y": 670.0
        },
        {
          "x": 27119.0,
          "y": 555.0
        },
        {
          "x": 27109.0,
          "y": 610.0
        },
        {
          "x": 27137.0,
          "y": 620.0
        },
        {
          "x": 27137.0,
          "y": 630.0
        },
        {
          "x": 27149.0,
          "y": 680.0
        },
        {
          "x": 27147.0,
          "y": 451.0
        },
        {
          "x": 27145.0,
          "y": 630.0
        },
        {
          "x": 27145.0,
          "y": 620.0
        },
        {
          "x": 27169.0,
          "y": 590.0
        },
        {
          "x": 28063.0,
          "y": 530.0
        },
        {
          "x": 28049.0,
          "y": 610.0
        },
        {
          "x": 28049.0,
          "y": 625.0
        },
        {
          "x": 28049.0,
          "y": 605.0
        },
        {
          "x": 28049.0,
          "y": 590.0
        },
        {
          "x": 28071.0,
          "y": 600.0
        },
        {
          "x": 28087.0,
          "y": 550.0
        },
        {
          "x": 28035.0,
          "y": 593.0
        },
        {
          "x": 28035.0,
          "y": 510.0
        },
        {
          "x": 29095.0,
          "y": 540.0
        },
        {
          "x": 29095.0,
          "y": 560.0
        },
        {
          "x": 29095.0,
          "y": 690.0
        },
        {
          "x": 29095.0,
          "y": 610.0
        },
        {
          "x": 29037.0,
          "y": 690.0
        },
        {
          "x": 29077.0,
          "y": 600.0
        },
        {
          "x": 29077.0,
          "y": 650.0
        },
        {
          "x": 29077.0,
          "y": 670.0
        },
        {
          "x": 29019.0,
          "y": 580.0
        },
        {
          "x": 29019.0,
          "y": 650.0
        },
        {
          "x": 29019.0,
          "y": 570.0
        },
        {
          "x": 29217.0,
          "y": 570.0
        },
        {
          "x": 29189.0,
          "y": 600.0
        },
        {
          "x": 29189.0,
          "y": 620.0
        },
        {
          "x": 29189.0,
          "y": 550.0
        },
        {
          "x": 29189.0,
          "y": 680.0
        },
        {
          "x": 29189.0,
          "y": 780.0
        },
        {
          "x": 29189.0,
          "y": 645.0
        },
        {
          "x": 29127.0,
          "y": 550.0
        },
        {
          "x": 29183.0,
          "y": 535.0
        },
        {
          "x": 29195.0,
          "y": 555.0
        },
        {
          "x": 29001.0,
          "y": 660.0
        },
        {
          "x": 29147.0,
          "y": 600.0
        },
        {
          "x": 29510.0,
          "y": 660.0
        },
        {
          "x": 29167.0,
          "y": 550.0
        },
        {
          "x": 29027.0,
          "y": 640.0
        },
        {
          "x": 29027.0,
          "y": 550.0
        },
        {
          "x": 29047.0,
          "y": 640.0
        },
        {
          "x": 30049.0,
          "y": 588.0
        },
        {
          "x": 30111.0,
          "y": 580.0
        },
        {
          "x": 30111.0,
          "y": 570.0
        },
        {
          "x": 30031.0,
          "y": 630.0
        },
        {
          "x": 30063.0,
          "y": 600.0
        },
        {
          "x": 30041.0,
          "y": 540.0
        },
        {
          "x": 31159.0,
          "y": 580.0
        },
        {
          "x": 31055.0,
          "y": 660.0
        },
        {
          "x": 31055.0,
          "y": 615.0
        },
        {
          "x": 31055.0,
          "y": 600.0
        },
        {
          "x": 31177.0,
          "y": 550.0
        },
        {
          "x": 31001.0,
          "y": 600.0
        },
        {
          "x": 31019.0,
          "y": 540.0
        },
        {
          "x": 31053.0,
          "y": 560.0
        },
        {
          "x": 31109.0,
          "y": 670.0
        },
        {
          "x": 31185.0,
          "y": 587.0
        },
        {
          "x": 32003.0,
          "y": 570.0
        },
        {
          "x": 32031.0,
          "y": 590.0
        },
        {
          "x": 32031.0,
          "y": 580.0
        },
        {
          "x": 33013.0,
          "y": 540.0
        },
        {
          "x": 33013.0,
          "y": 553.0
        },
        {
          "x": 33011.0,
          "y": 540.0
        },
        {
          "x": 33011.0,
          "y": 530.0
        },
        {
          "x": 33011.0,
          "y": 610.0
        },
        {
          "x": 33009.0,
          "y": 780.0
        },
        {
          "x": 33009.0,
          "y": 530.0
        },
        {
          "x": 33005.0,
          "y": 535.0
        },
        {
          "x": 33017.0,
          "y": 620.0
        },
        {
          "x": 34013.0,
          "y": 480.0
        },
        {
          "x": 34013.0,
          "y": 530.0
        },
        {
          "x": 34013.0,
          "y": 560.0
        },
        {
          "x": 34013.0,
          "y": 640.0
        },
        {
          "x": 34013.0,
          "y": 600.0
        },
        {
          "x": 34013.0,
          "y": 600.0
        },
        {
          "x": 34041.0,
          "y": 520.0
        },
        {
          "x": 34023.0,
          "y": 560.0
        },
        {
          "x": 34023.0,
          "y": 680.0
        },
        {
          "x": 34027.0,
          "y": 630.0
        },
        {
          "x": 34027.0,
          "y": 570.0
        },
        {
          "x": 34027.0,
          "y": 470.0
        },
        {
          "x": 34003.0,
          "y": 560.0
        },
        {
          "x": 34003.0,
          "y": 500.0
        },
        {
          "x": 34003.0,
          "y": 620.0
        },
        {
          "x": 34029.0,
          "y": 493.0
        },
        {
          "x": 34015.0,
          "y": 620.0
        },
        {
          "x": 34017.0,
          "y": 510.0
        },
        {
          "x": 34017.0,
          "y": 520.0
        },
        {
          "x": 34017.0,
          "y": 710.0
        },
        {
          "x": 34039.0,
          "y": 530.0
        },
        {
          "x": 34025.0,
          "y": 580.0
        },
        {
          "x": 34021.0,
          "y": 790.0
        },
        {
          "x": 34021.0,
          "y": 590.0
        },
        {
          "x": 34021.0,
          "y": 700.0
        },
        {
          "x": 34007.0,
          "y": 610.0
        },
        {
          "x": 34001.0,
          "y": 600.0
        },
        {
          "x": 34031.0,
          "y": 540.0
        },
        {
          "x": 35041.0,
          "y": 530.0
        },
        {
          "x": 35005.0,
          "y": 632.0
        },
        {
          "x": 35053.0,
          "y": 670.0
        },
        {
          "x": 35001.0,
          "y": 590.0
        },
        {
          "x": 35001.0,
          "y": 590.0
        },
        {
          "x": 35013.0,
          "y": 540.0
        },
        {
          "x": 35049.0,
          "y": 590.0
        },
        {
          "x": 35025.0,
          "y": 500.0
        },
        {
          "x": 36059.0,
          "y": 590.0
        },
        {
          "x": 36059.0,
          "y": 560.0
        },
        {
          "x": 36059.0,
          "y": 595.0
        },
        {
          "x": 36059.0,
          "y": 600.0
        },
        {
          "x": 36059.0,
          "y": 548.0
        },
        {
          "x": 36059.0,
          "y": 515.0
        },
        {
          "x": 36059.0,
          "y": 770.0
        },
        {
          "x": 36001.0,
          "y": 650.0
        },
        {
          "x": 36001.0,
          "y": 480.0
        },
        {
          "x": 36001.0,
          "y": 530.0
        },
        {
          "x": 36001.0,
          "y": 570.0
        },
        {
          "x": 36001.0,
          "y": 620.0
        },
        {
          "x": 36003.0,
          "y": 620.0
        },
        {
          "x": 36003.0,
          "y": 630.0
        },
        {
          "x": 36003.0,
          "y": 560.0
        },
        {
          "x": 36061.0,
          "y": 710.0
        },
        {
          "x": 36061.0,
          "y": 780.0
        },
        {
          "x": 36061.0,
          "y": 770.0
        },
        {
          "x": 36061.0,
          "y": 640.0
        },
        {
          "x": 36061.0,
          "y": 610.0
        },
        {
          "x": 36061.0,
          "y": 600.0
        },
        {
          "x": 36061.0,
          "y": 530.0
        },
        {
          "x": 36061.0,
          "y": 650.0
        },
        {
          "x": 36061.0,
          "y": 510.0
        },
        {
          "x": 36061.0,
          "y": 570.0
        },
        {
          "x": 36061.0,
          "y": 620.0
        },
        {
          "x": 36061.0,
          "y": 710.0
        },
        {
          "x": 36061.0,
          "y": 570.0
        },
        {
          "x": 36061.0,
          "y": 590.0
        },
        {
          "x": 36061.0,
          "y": 580.0
        },
        {
          "x": 36061.0,
          "y": 670.0
        },
        {
          "x": 36029.0,
          "y": 610.0
        },
        {
          "x": 36029.0,
          "y": 550.0
        },
        {
          "x": 36029.0,
          "y": 580.0
        },
        {
          "x": 36029.0,
          "y": 540.0
        },
        {
          "x": 36029.0,
          "y": 540.0
        },
        {
          "x": 36029.0,
          "y": 640.0
        },
        {
          "x": 36029.0,
          "y": 550.0
        },
        {
          "x": 36053.0,
          "y": 720.0
        },
        {
          "x": 36053.0,
          "y": 570.0
        },
        {
          "x": 36119.0,
          "y": 530.0
        },
        {
          "x": 36119.0,
          "y": 620.0
        },
        {
          "x": 36119.0,
          "y": 610.0
        },
        {
          "x": 36119.0,
          "y": 480.0
        },
        {
          "x": 36119.0,
          "y": 590.0
        },
        {
          "x": 36109.0,
          "y": 760.0
        },
        {
          "x": 36109.0,
          "y": 640.0
        },
        {
          "x": 36067.0,
          "y": 560.0
        },
        {
          "x": 36067.0,
          "y": 613.0
        },
        {
          "x": 36067.0,
          "y": 530.0
        },
        {
          "x": 36067.0,
          "y": 600.0
        },
        {
          "x": 36047.0,
          "y": 590.0
        },
        {
          "x": 36047.0,
          "y": 570.0
        },
        {
          "x": 36047.0,
          "y": 680.0
        },
        {
          "x": 36047.0,
          "y": 610.0
        },
        {
          "x": 36047.0,
          "y": 520.0
        },
        {
          "x": 36047.0,
          "y": 550.0
        },
        {
          "x": 36085.0,
          "y": 570.0
        },
        {
          "x": 36085.0,
          "y": 640.0
        },
        {
          "x": 36005.0,
          "y": 500.0
        },
        {
          "x": 36005.0,
          "y": 640.0
        },
        {
          "x": 36005.0,
          "y": 620.0
        },
        {
          "x": 36005.0,
          "y": 530.0
        },
        {
          "x": 36005.0,
          "y": 590.0
        },
        {
          "x": 36081.0,
          "y": 570.0
        },
        {
          "x": 36081.0,
          "y": 470.0
        },
        {
          "x": 36081.0,
          "y": 600.0
        },
        {
          "x": 36103.0,
          "y": 540.0
        },
        {
          "x": 36103.0,
          "y": 510.0
        },
        {
          "x": 36103.0,
          "y": 580.0
        },
        {
          "x": 36103.0,
          "y": 670.0
        },
        {
          "x": 36103.0,
          "y": 530.0
        },
        {
          "x": 36015.0,
          "y": 600.0
        },
        {
          "x": 36069.0,
          "y": 640.0
        },
        {
          "x": 36123.0,
          "y": 540.0
        },
        {
          "x": 36027.0,
          "y": 632.0
        },
        {
          "x": 36071.0,
          "y": 530.0
        },
        {
          "x": 36055.0,
          "y": 610.0
        },
        {
          "x": 36055.0,
          "y": 600.0
        },
        {
          "x": 36055.0,
          "y": 670.0
        },
        {
          "x": 36055.0,
          "y": 720.0
        },
        {
          "x": 36055.0,
          "y": 610.0
        },
        {
          "x": 36055.0,
          "y": 580.0
        },
        {
          "x": 36063.0,
          "y": 580.0
        },
        {
          "x": 36087.0,
          "y": 540.0
        },
        {
          "x": 36087.0,
          "y": 510.0
        },
        {
          "x": 36083.0,
          "y": 740.0
        },
        {
          "x": 36083.0,
          "y": 590.0
        },
        {
          "x": 36009.0,
          "y": 580.0
        },
        {
          "x": 36091.0,
          "y": 660.0
        },
        {
          "x": 36065.0,
          "y": 500.0
        },
        {
          "x": 36065.0,
          "y": 653.0
        },
        {
          "x": 36065.0,
          "y": 540.0
        },
        {
          "x": 36095.0,
          "y": 540.0
        },
        {
          "x": 36007.0,
          "y": 690.0
        },
        {
          "x": 36023.0,
          "y": 560.0
        },
        {
          "x": 36013.0,
          "y": 640.0
        },
        {
          "x": 36051.0,
          "y": 680.0
        },
        {
          "x": 36111.0,
          "y": 610.0
        },
        {
          "x": 36077.0,
          "y": 590.0
        },
        {
          "x": 36075.0,
          "y": 590.0
        },
        {
          "x": 36089.0,
          "y": 590.0
        },
        {
          "x": 36019.0,
          "y": 570.0
        },
        {
          "x": 36093.0,
          "y": 670.0
        },
        {
          "x": 36011.0,
          "y": 590.0
        },
        {
          "x": 37189.0,
          "y": 610.0
        },
        {
          "x": 37195.0,
          "y": 540.0
        },
        {
          "x": 37071.0,
          "y": 570.0
        },
        {
          "x": 37081.0,
          "y": 430.0
        },
        {
          "x": 37081.0,
          "y": 530.0
        },
        {
          "x": 37081.0,
          "y": 610.0
        },
        {
          "x": 37081.0,
          "y": 560.0
        },
        {
          "x": 37081.0,
          "y": 500.0
        },
        {
          "x": 37081.0,
          "y": 580.0
        },
        {
          "x": 37175.0,
          "y": 608.0
        },
        {
          "x": 37025.0,
          "y": 560.0
        },
        {
          "x": 37159.0,
          "y": 580.0
        },
        {
          "x": 37159.0,
          "y": 430.0
        },
        {
          "x": 37091.0,
          "y": 490.0
        },
        {
          "x": 37063.0,
          "y": 790.0
        },
        {
          "x": 37063.0,
          "y": 480.0
        },
        {
          "x": 37147.0,
          "y": 570.0
        },
        {
          "x": 37139.0,
          "y": 470.0
        },
        {
          "x": 37139.0,
          "y": 590.0
        },
        {
          "x": 37001.0,
          "y": 660.0
        },
        {
          "x": 37051.0,
          "y": 470.0
        },
        {
          "x": 37051.0,
          "y": 560.0
        },
        {
          "x": 37045.0,
          "y": 570.0
        },
        {
          "x": 37119.0,
          "y": 520.0
        },
        {
          "x": 37119.0,
          "y": 600.0
        },
        {
          "x": 37119.0,
          "y": 560.0
        },
        {
          "x": 37119.0,
          "y": 552.0
        },
        {
          "x": 37011.0,
          "y": 540.0
        },
        {
          "x": 37035.0,
          "y": 590.0
        },
        {
          "x": 37069.0,
          "y": 450.0
        },
        {
          "x": 37115.0,
          "y": 570.0
        },
        {
          "x": 37183.0,
          "y": 570.0
        },
        {
          "x": 37183.0,
          "y": 660.0
        },
        {
          "x": 37183.0,
          "y": 530.0
        },
        {
          "x": 37183.0,
          "y": 440.0
        },
        {
          "x": 37183.0,
          "y": 430.0
        },
        {
          "x": 37021.0,
          "y": 550.0
        },
        {
          "x": 37021.0,
          "y": 640.0
        },
        {
          "x": 37021.0,
          "y": 620.0
        },
        {
          "x": 37135.0,
          "y": 700.0
        },
        {
          "x": 37067.0,
          "y": 600.0
        },
        {
          "x": 37067.0,
          "y": 620.0
        },
        {
          "x": 37067.0,
          "y": 710.0
        },
        {
          "x": 37067.0,
          "y": 490.0
        },
        {
          "x": 37127.0,
          "y": 525.0
        },
        {
          "x": 37129.0,
          "y": 610.0
        },
        {
          "x": 37155.0,
          "y": 520.0
        },
        {
          "x": 37167.0,
          "y": 540.0
        },
        {
          "x": 37099.0,
          "y": 560.0
        },
        {
          "x": 38017.0,
          "y": 650.0
        },
        {
          "x": 38003.0,
          "y": 530.0
        },
        {
          "x": 39061.0,
          "y": 540.0
        },
        {
          "x": 39061.0,
          "y": 565.0
        },
        {
          "x": 39061.0,
          "y": 590.0
        },
        {
          "x": 39061.0,
          "y": 640.0
        },
        {
          "x": 39061.0,
          "y": 530.0
        },
        {
          "x": 39061.0,
          "y": 540.0
        },
        {
          "x": 39061.0,
          "y": 640.0
        },
        {
          "x": 39005.0,
          "y": 580.0
        },
        {
          "x": 39035.0,
          "y": 600.0
        },
        {
          "x": 39035.0,
          "y": 730.0
        },
        {
          "x": 39035.0,
          "y": 590.0
        },
        {
          "x": 39035.0,
          "y": 570.0
        },
        {
          "x": 39035.0,
          "y": 630.0
        },
        {
          "x": 39035.0,
          "y": 530.0
        },
        {
          "x": 39035.0,
          "y": 530.0
        },
        {
          "x": 39003.0,
          "y": 610.0
        },
        {
          "x": 39173.0,
          "y": 570.0
        },
        {
          "x": 39049.0,
          "y": 590.0
        },
        {
          "x": 39049.0,
          "y": 540.0
        },
        {
          "x": 39049.0,
          "y": 670.0
        },
        {
          "x": 39049.0,
          "y": 590.0
        },
        {
          "x": 39049.0,
          "y": 590.0
        },
        {
          "x": 39057.0,
          "y": 640.0
        },
        {
          "x": 39129.0,
          "y": 540.0
        },
        {
          "x": 39023.0,
          "y": 440.0
        },
        {
          "x": 39023.0,
          "y": 640.0
        },
        {
          "x": 39113.0,
          "y": 650.0
        },
        {
          "x": 39113.0,
          "y": 630.0
        },
        {
          "x": 39039.0,
          "y": 560.0
        },
        {
          "x": 39089.0,
          "y": 680.0
        },
        {
          "x": 39063.0,
          "y": 580.0
        },
        {
          "x": 39147.0,
          "y": 580.0
        },
        {
          "x": 39147.0,
          "y": 540.0
        },
        {
          "x": 39133.0,
          "y": 600.0
        },
        {
          "x": 39133.0,
          "y": 590.0
        },
        {
          "x": 39083.0,
          "y": 690.0
        },
        {
          "x": 39083.0,
          "y": 600.0
        },
        {
          "x": 39085.0,
          "y": 520.0
        },
        {
          "x": 39151.0,
          "y": 580.0
        },
        {
          "x": 39151.0,
          "y": 580.0
        },
        {
          "x": 39151.0,
          "y": 570.0
        },
        {
          "x": 39139.0,
          "y": 300.0
        },
        {
          "x": 39167.0,
          "y": 590.0
        },
        {
          "x": 39017.0,
          "y": 660.0
        },
        {
          "x": 39119.0,
          "y": 610.0
        },
        {
          "x": 39093.0,
          "y": 710.0
        },
        {
          "x": 39065.0,
          "y": 650.0
        },
        {
          "x": 39009.0,
          "y": 600.0
        },
        {
          "x": 39041.0,
          "y": 660.0
        },
        {
          "x": 39081.0,
          "y": 640.0
        },
        {
          "x": 39027.0,
          "y": 550.0
        },
        {
          "x": 39169.0,
          "y": 650.0
        },
        {
          "x": 40101.0,
          "y": 490.0
        },
        {
          "x": 40109.0,
          "y": 720.0
        },
        {
          "x": 40109.0,
          "y": 650.0
        },
        {
          "x": 40109.0,
          "y": 635.0
        },
        {
          "x": 40139.0,
          "y": 530.0
        },
        {
          "x": 40119.0,
          "y": 640.0
        },
        {
          "x": 40143.0,
          "y": 690.0
        },
        {
          "x": 41051.0,
          "y": 560.0
        },
        {
          "x": 41051.0,
          "y": 680.0
        },
        {
          "x": 41051.0,
          "y": 590.0
        },
        {
          "x": 41051.0,
          "y": 580.0
        },
        {
          "x": 41051.0,
          "y": 640.0
        },
        {
          "x": 41051.0,
          "y": 670.0
        },
        {
          "x": 41051.0,
          "y": 580.0
        },
        {
          "x": 41061.0,
          "y": 550.0
        },
        {
          "x": 41071.0,
          "y": 620.0
        },
        {
          "x": 41071.0,
          "y": 620.0
        },
        {
          "x": 41039.0,
          "y": 560.0
        },
        {
          "x": 41039.0,
          "y": 620.0
        },
        {
          "x": 41035.0,
          "y": 610.0
        },
        {
          "x": 41003.0,
          "y": 610.0
        },
        {
          "x": 41067.0,
          "y": 610.0
        },
        {
          "x": 41029.0,
          "y": 560.0
        },
        {
          "x": 41047.0,
          "y": 670.0
        },
        {
          "x": 41053.0,
          "y": 550.0
        },
        {
          "x": 42091.0,
          "y": 580.0
        },
        {
          "x": 42091.0,
          "y": 590.0
        },
        {
          "x": 42091.0,
          "y": 680.0
        },
        {
          "x": 42091.0,
          "y": 548.0
        },
        {
          "x": 42091.0,
          "y": 440.0
        },
        {
          "x": 42091.0,
          "y": 460.0
        },
        {
          "x": 42091.0,
          "y": 550.0
        },
        {
          "x": 42091.0,
          "y": 550.0
        },
        {
          "x": 42091.0,
          "y": 720.0
        },
        {
          "x": 42091.0,
          "y": 660.0
        },
        {
          "x": 42011.0,
          "y": 560.0
        },
        {
          "x": 42011.0,
          "y": 530.0
        },
        {
          "x": 42011.0,
          "y": 540.0
        },
        {
          "x": 42011.0,
          "y": 570.0
        },
        {
          "x": 42039.0,
          "y": 650.0
        },
        {
          "x": 42039.0,
          "y": 550.0
        },
        {
          "x": 42077.0,
          "y": 590.0
        },
        {
          "x": 42077.0,
          "y": 580.0
        },
        {
          "x": 42077.0,
          "y": 660.0
        },
        {
          "x": 42077.0,
          "y": 570.0
        },
        {
          "x": 42069.0,
          "y": 550.0
        },
        {
          "x": 42069.0,
          "y": 480.0
        },
        {
          "x": 42069.0,
          "y": 560.0
        },
        {
          "x": 42069.0,
          "y": 540.0
        },
        {
          "x": 42069.0,
          "y": 610.0
        },
        {
          "x": 42037.0,
          "y": 560.0
        },
        {
          "x": 42029.0,
          "y": 500.0
        },
        {
          "x": 42029.0,
          "y": 520.0
        },
        {
          "x": 42029.0,
          "y": 570.0
        },
        {
          "x": 42029.0,
          "y": 530.0
        },
        {
          "x": 42029.0,
          "y": 450.0
        },
        {
          "x": 42029.0,
          "y": 580.0
        },
        {
          "x": 42119.0,
          "y": 710.0
        },
        {
          "x": 42125.0,
          "y": 530.0
        },
        {
          "x": 42125.0,
          "y": 500.0
        },
        {
          "x": 42125.0,
          "y": 500.0
        },
        {
          "x": 42125.0,
          "y": 620.0
        },
        {
          "x": 42003.0,
          "y": 540.0
        },
        {
          "x": 42003.0,
          "y": 780.0
        },
        {
          "x": 42003.0,
          "y": 620.0
        },
        {
          "x": 42003.0,
          "y": 520.0
        },
        {
          "x": 42003.0,
          "y": 570.0
        },
        {
          "x": 42003.0,
          "y": 670.0
        },
        {
          "x": 42003.0,
          "y": 560.0
        },
        {
          "x": 42003.0,
          "y": 560.0
        },
        {
          "x": 42003.0,
          "y": 570.0
        },
        {
          "x": 42003.0,
          "y": 540.0
        },
        {
          "x": 42101.0,
          "y": 520.0
        },
        {
          "x": 42101.0,
          "y": 650.0
        },
        {
          "x": 42101.0,
          "y": 530.0
        },
        {
          "x": 42101.0,
          "y": 500.0
        },
        {
          "x": 42101.0,
          "y": 590.0
        },
        {
          "x": 42101.0,
          "y": 530.0
        },
        {
          "x": 42101.0,
          "y": 770.0
        },
        {
          "x": 42101.0,
          "y": 590.0
        },
        {
          "x": 42101.0,
          "y": 570.0
        },
        {
          "x": 42101.0,
          "y": 650.0
        },
        {
          "x": 42101.0,
          "y": 620.0
        },
        {
          "x": 42101.0,
          "y": 600.0
        },
        {
          "x": 42031.0,
          "y": 530.0
        },
        {
          "x": 42021.0,
          "y": 600.0
        },
        {
          "x": 42021.0,
          "y": 510.0
        },
        {
          "x": 42021.0,
          "y": 570.0
        },
        {
          "x": 42021.0,
          "y": 580.0
        },
        {
          "x": 42017.0,
          "y": 560.0
        },
        {
          "x": 42017.0,
          "y": 580.0
        },
        {
          "x": 42041.0,
          "y": 680.0
        },
        {
          "x": 42041.0,
          "y": 640.0
        },
        {
          "x": 42041.0,
          "y": 570.0
        },
        {
          "x": 42089.0,
          "y": 550.0
        },
        {
          "x": 42049.0,
          "y": 520.0
        },
        {
          "x": 42049.0,
          "y": 580.0
        },
        {
          "x": 42049.0,
          "y": 580.0
        },
        {
          "x": 42049.0,
          "y": 600.0
        },
        {
          "x": 42071.0,
          "y": 620.0
        },
        {
          "x": 42071.0,
          "y": 690.0
        },
        {
          "x": 42071.0,
          "y": 580.0
        },
        {
          "x": 42071.0,
          "y": 613.0
        },
        {
          "x": 42007.0,
          "y": 590.0
        },
        {
          "x": 42007.0,
          "y": 590.0
        },
        {
          "x": 42001.0,
          "y": 670.0
        },
        {
          "x": 42045.0,
          "y": 740.0
        },
        {
          "x": 42045.0,
          "y": 490.0
        },
        {
          "x": 42045.0,
          "y": 540.0
        },
        {
          "x": 42045.0,
          "y": 760.0
        },
        {
          "x": 42045.0,
          "y": 700.0
        },
        {
          "x": 42045.0,
          "y": 550.0
        },
        {
          "x": 42063.0,
          "y": 570.0
        },
        {
          "x": 42061.0,
          "y": 640.0
        },
        {
          "x": 42079.0,
          "y": 560.0
        },
        {
          "x": 42079.0,
          "y": 570.0
        },
        {
          "x": 42079.0,
          "y": 560.0
        },
        {
          "x": 42079.0,
          "y": 600.0
        },
        {
          "x": 42095.0,
          "y": 710.0
        },
        {
          "x": 42095.0,
          "y": 720.0
        },
        {
          "x": 42095.0,
          "y": 610.0
        },
        {
          "x": 42095.0,
          "y": 580.0
        },
        {
          "x": 42075.0,
          "y": 620.0
        },
        {
          "x": 42035.0,
          "y": 530.0
        },
        {
          "x": 42081.0,
          "y": 580.0
        },
        {
          "x": 42117.0,
          "y": 530.0
        },
        {
          "x": 42129.0,
          "y": 540.0
        },
        {
          "x": 42129.0,
          "y": 610.0
        },
        {
          "x": 42129.0,
          "y": 580.0
        },
        {
          "x": 42085.0,
          "y": 510.0
        },
        {
          "x": 42085.0,
          "y": 530.0
        },
        {
          "x": 42013.0,
          "y": 570.0
        },
        {
          "x": 42043.0,
          "y": 600.0
        },
        {
          "x": 42033.0,
          "y": 575.0
        },
        {
          "x": 42051.0,
          "y": 540.0
        },
        {
          "x": 42027.0,
          "y": 670.0
        },
        {
          "x": 42055.0,
          "y": 555.0
        },
        {
          "x": 42055.0,
          "y": 550.0
        },
        {
          "x": 42107.0,
          "y": 520.0
        },
        {
          "x": 42133.0,
          "y": 590.0
        },
        {
          "x": 42133.0,
          "y": 570.0
        },
        {
          "x": 42083.0,
          "y": 550.0
        },
        {
          "x": 42019.0,
          "y": 550.0
        },
        {
          "x": 42109.0,
          "y": 600.0
        },
        {
          "x": 42059.0,
          "y": 550.0
        },
        {
          "x": 42073.0,
          "y": 590.0
        },
        {
          "x": 44007.0,
          "y": 770.0
        },
        {
          "x": 44007.0,
          "y": 620.0
        },
        {
          "x": 44007.0,
          "y": 650.0
        },
        {
          "x": 44007.0,
          "y": 540.0
        },
        {
          "x": 44007.0,
          "y": 680.0
        },
        {
          "x": 44009.0,
          "y": 590.0
        },
        {
          "x": 44001.0,
          "y": 600.0
        },
        {
          "x": 44001.0,
          "y": 567.0
        },
        {
          "x": 44005.0,
          "y": 580.0
        },
        {
          "x": 45007.0,
          "y": 570.0
        },
        {
          "x": 45019.0,
          "y": 540.0
        },
        {
          "x": 45019.0,
          "y": 640.0
        },
        {
          "x": 45019.0,
          "y": 600.0
        },
        {
          "x": 45077.0,
          "y": 573.0
        },
        {
          "x": 45077.0,
          "y": 670.0
        },
        {
          "x": 45075.0,
          "y": 510.0
        },
        {
          "x": 45075.0,
          "y": 460.0
        },
        {
          "x": 45031.0,
          "y": 560.0
        },
        {
          "x": 45079.0,
          "y": 590.0
        },
        {
          "x": 45079.0,
          "y": 540.0
        },
        {
          "x": 45079.0,
          "y": 640.0
        },
        {
          "x": 45083.0,
          "y": 590.0
        },
        {
          "x": 45083.0,
          "y": 560.0
        },
        {
          "x": 45083.0,
          "y": 500.0
        },
        {
          "x": 45083.0,
          "y": 650.0
        },
        {
          "x": 45001.0,
          "y": 610.0
        },
        {
          "x": 45045.0,
          "y": 690.0
        },
        {
          "x": 45045.0,
          "y": 570.0
        },
        {
          "x": 45021.0,
          "y": 540.0
        },
        {
          "x": 45071.0,
          "y": 560.0
        },
        {
          "x": 45059.0,
          "y": 620.0
        },
        {
          "x": 45003.0,
          "y": 560.0
        },
        {
          "x": 45057.0,
          "y": 535.0
        },
        {
          "x": 45005.0,
          "y": 520.0
        },
        {
          "x": 45061.0,
          "y": 530.0
        },
        {
          "x": 45087.0,
          "y": 480.0
        },
        {
          "x": 45051.0,
          "y": 570.0
        },
        {
          "x": 45009.0,
          "y": 450.0
        },
        {
          "x": 45091.0,
          "y": 590.0
        },
        {
          "x": 46035.0,
          "y": 517.0
        },
        {
          "x": 46135.0,
          "y": 480.0
        },
        {
          "x": 46099.0,
          "y": 660.0
        },
        {
          "x": 46027.0,
          "y": 580.0
        },
        {
          "x": 12069.0,
          "y": 660.0
        },
        {
          "x": 47037.0,
          "y": 640.0
        },
        {
          "x": 47037.0,
          "y": 600.0
        },
        {
          "x": 47037.0,
          "y": 540.0
        },
        {
          "x": 47037.0,
          "y": 480.0
        },
        {
          "x": 47037.0,
          "y": 500.0
        },
        {
          "x": 47037.0,
          "y": 590.0
        },
        {
          "x": 47037.0,
          "y": 740.0
        },
        {
          "x": 47017.0,
          "y": 530.0
        },
        {
          "x": 47143.0,
          "y": 638.0
        },
        {
          "x": 47089.0,
          "y": 575.0
        },
        {
          "x": 47157.0,
          "y": 620.0
        },
        {
          "x": 47157.0,
          "y": 580.0
        },
        {
          "x": 47157.0,
          "y": 590.0
        },
        {
          "x": 47157.0,
          "y": 680.0
        },
        {
          "x": 47119.0,
          "y": 570.0
        },
        {
          "x": 47189.0,
          "y": 520.0
        },
        {
          "x": 47179.0,
          "y": 580.0
        },
        {
          "x": 47023.0,
          "y": 590.0
        },
        {
          "x": 47123.0,
          "y": 450.0
        },
        {
          "x": 47093.0,
          "y": 560.0
        },
        {
          "x": 47093.0,
          "y": 510.0
        },
        {
          "x": 47093.0,
          "y": 640.0
        },
        {
          "x": 47163.0,
          "y": 565.0
        },
        {
          "x": 47113.0,
          "y": 600.0
        },
        {
          "x": 47113.0,
          "y": 640.0
        },
        {
          "x": 47011.0,
          "y": 600.0
        },
        {
          "x": 47025.0,
          "y": 540.0
        },
        {
          "x": 47149.0,
          "y": 560.0
        },
        {
          "x": 47019.0,
          "y": 580.0
        },
        {
          "x": 47031.0,
          "y": 550.0
        },
        {
          "x": 47065.0,
          "y": 560.0
        },
        {
          "x": 47065.0,
          "y": 480.0
        },
        {
          "x": 47107.0,
          "y": 510.0
        },
        {
          "x": 47059.0,
          "y": 523.0
        },
        {
          "x": 47165.0,
          "y": 480.0
        },
        {
          "x": 48441.0,
          "y": 630.0
        },
        {
          "x": 48441.0,
          "y": 560.0
        },
        {
          "x": 48441.0,
          "y": 560.0
        },
        {
          "x": 48451.0,
          "y": 540.0
        },
        {
          "x": 48181.0,
          "y": 670.0
        },
        {
          "x": 48309.0,
          "y": 660.0
        },
        {
          "x": 48453.0,
          "y": 570.0
        },
        {
          "x": 48453.0,
          "y": 470.0
        },
        {
          "x": 48453.0,
          "y": 610.0
        },
        {
          "x": 48453.0,
          "y": 690.0
        },
        {
          "x": 48355.0,
          "y": 520.0
        },
        {
          "x": 48113.0,
          "y": 582.0
        },
        {
          "x": 48113.0,
          "y": 624.0
        },
        {
          "x": 48113.0,
          "y": 650.0
        },
        {
          "x": 48113.0,
          "y": 520.0
        },
        {
          "x": 48113.0,
          "y": 450.0
        },
        {
          "x": 48113.0,
          "y": 690.0
        },
        {
          "x": 48113.0,
          "y": 540.0
        },
        {
          "x": 48203.0,
          "y": 530.0
        },
        {
          "x": 48201.0,
          "y": 600.0
        },
        {
          "x": 48201.0,
          "y": 610.0
        },
        {
          "x": 48201.0,
          "y": 770.0
        },
        {
          "x": 48201.0,
          "y": 640.0
        },
        {
          "x": 48049.0,
          "y": 588.0
        },
        {
          "x": 48029.0,
          "y": 550.0
        },
        {
          "x": 48029.0,
          "y": 500.0
        },
        {
          "x": 48029.0,
          "y": 580.0
        },
        {
          "x": 48029.0,
          "y": 570.0
        },
        {
          "x": 48029.0,
          "y": 690.0
        },
        {
          "x": 48245.0,
          "y": 530.0
        },
        {
          "x": 48183.0,
          "y": 670.0
        },
        {
          "x": 48303.0,
          "y": 560.0
        },
        {
          "x": 48303.0,
          "y": 620.0
        },
        {
          "x": 48027.0,
          "y": 570.0
        },
        {
          "x": 48485.0,
          "y": 540.0
        },
        {
          "x": 48121.0,
          "y": 620.0
        },
        {
          "x": 48121.0,
          "y": 530.0
        },
        {
          "x": 48473.0,
          "y": 470.0
        },
        {
          "x": 48471.0,
          "y": 560.0
        },
        {
          "x": 48265.0,
          "y": 550.0
        },
        {
          "x": 48491.0,
          "y": 670.0
        },
        {
          "x": 48347.0,
          "y": 550.0
        },
        {
          "x": 48209.0,
          "y": 590.0
        },
        {
          "x": 48251.0,
          "y": 530.0
        },
        {
          "x": 48143.0,
          "y": 540.0
        },
        {
          "x": 48167.0,
          "y": 542.0
        },
        {
          "x": 48041.0,
          "y": 660.0
        },
        {
          "x": 48439.0,
          "y": 610.0
        },
        {
          "x": 48439.0,
          "y": 640.0
        },
        {
          "x": 48439.0,
          "y": 602.0
        },
        {
          "x": 48439.0,
          "y": 790.0
        },
        {
          "x": 48439.0,
          "y": 560.0
        },
        {
          "x": 48187.0,
          "y": 590.0
        },
        {
          "x": 48135.0,
          "y": 540.0
        },
        {
          "x": 48189.0,
          "y": 590.0
        },
        {
          "x": 48381.0,
          "y": 560.0
        },
        {
          "x": 49049.0,
          "y": 680.0
        },
        {
          "x": 49021.0,
          "y": 560.0
        },
        {
          "x": 49005.0,
          "y": 620.0
        },
        {
          "x": 49035.0,
          "y": 630.0
        },
        {
          "x": 49035.0,
          "y": 610.0
        },
        {
          "x": 50003.0,
          "y": 620.0
        },
        {
          "x": 50003.0,
          "y": 550.0
        },
        {
          "x": 50021.0,
          "y": 530.0
        },
        {
          "x": 50021.0,
          "y": 560.0
        },
        {
          "x": 50021.0,
          "y": 545.0
        },
        {
          "x": 50007.0,
          "y": 590.0
        },
        {
          "x": 50007.0,
          "y": 640.0
        },
        {
          "x": 50015.0,
          "y": 520.0
        },
        {
          "x": 50005.0,
          "y": 510.0
        },
        {
          "x": 50025.0,
          "y": 650.0
        },
        {
          "x": 50001.0,
          "y": 740.0
        },
        {
          "x": 50023.0,
          "y": 590.0
        },
        {
          "x": 50017.0,
          "y": 550.0
        },
        {
          "x": 51590.0,
          "y": 550.0
        },
        {
          "x": 51185.0,
          "y": 530.0
        },
        {
          "x": 51165.0,
          "y": 560.0
        },
        {
          "x": 51830.0,
          "y": 710.0
        },
        {
          "x": 51700.0,
          "y": 620.0
        },
        {
          "x": 51770.0,
          "y": 510.0
        },
        {
          "x": 51191.0,
          "y": 570.0
        },
        {
          "x": 51067.0,
          "y": 490.0
        },
        {
          "x": 51600.0,
          "y": 610.0
        },
        {
          "x": 51147.0,
          "y": 620.0
        },
        {
          "x": 51650.0,
          "y": 606.0
        },
        {
          "x": 51161.0,
          "y": 600.0
        },
        {
          "x": 51660.0,
          "y": 630.0
        },
        {
          "x": 51031.0,
          "y": 540.0
        },
        {
          "x": 51680.0,
          "y": 570.0
        },
        {
          "x": 51680.0,
          "y": 530.0
        },
        {
          "x": 51680.0,
          "y": 630.0
        },
        {
          "x": 51015.0,
          "y": 540.0
        },
        {
          "x": 51177.0,
          "y": 630.0
        },
        {
          "x": 51013.0,
          "y": 550.0
        },
        {
          "x": 51013.0,
          "y": 560.0
        },
        {
          "x": 51710.0,
          "y": 490.0
        },
        {
          "x": 51710.0,
          "y": 540.0
        },
        {
          "x": 51750.0,
          "y": 540.0
        },
        {
          "x": 51085.0,
          "y": 590.0
        },
        {
          "x": 51760.0,
          "y": 680.0
        },
        {
          "x": 51760.0,
          "y": 580.0
        },
        {
          "x": 51775.0,
          "y": 590.0
        },
        {
          "x": 51025.0,
          "y": 410.0
        },
        {
          "x": 51840.0,
          "y": 580.0
        },
        {
          "x": 51163.0,
          "y": 570.0
        },
        {
          "x": 51163.0,
          "y": 610.0
        },
        {
          "x": 51163.0,
          "y": 730.0
        },
        {
          "x": 51009.0,
          "y": 595.0
        },
        {
          "x": 51195.0,
          "y": 530.0
        },
        {
          "x": 51520.0,
          "y": 510.0
        },
        {
          "x": 51121.0,
          "y": 660.0
        },
        {
          "x": 51540.0,
          "y": 720.0
        },
        {
          "x": 53037.0,
          "y": 550.0
        },
        {
          "x": 53063.0,
          "y": 790.0
        },
        {
          "x": 53063.0,
          "y": 650.0
        },
        {
          "x": 53063.0,
          "y": 650.0
        },
        {
          "x": 53067.0,
          "y": 590.0
        },
        {
          "x": 53067.0,
          "y": 570.0
        },
        {
          "x": 53033.0,
          "y": 570.0
        },
        {
          "x": 53033.0,
          "y": 640.0
        },
        {
          "x": 53033.0,
          "y": 630.0
        },
        {
          "x": 53033.0,
          "y": 670.0
        },
        {
          "x": 53033.0,
          "y": 660.0
        },
        {
          "x": 53053.0,
          "y": 610.0
        },
        {
          "x": 53053.0,
          "y": 660.0
        },
        {
          "x": 53075.0,
          "y": 610.0
        },
        {
          "x": 53073.0,
          "y": 610.0
        },
        {
          "x": 53071.0,
          "y": 690.0
        },
        {
          "x": 54001.0,
          "y": 520.0
        },
        {
          "x": 54019.0,
          "y": 580.0
        },
        {
          "x": 54019.0,
          "y": 560.0
        },
        {
          "x": 54009.0,
          "y": 550.0
        },
        {
          "x": 54055.0,
          "y": 520.0
        },
        {
          "x": 54055.0,
          "y": 560.0
        },
        {
          "x": 54039.0,
          "y": 560.0
        },
        {
          "x": 54083.0,
          "y": 550.0
        },
        {
          "x": 54049.0,
          "y": 540.0
        },
        {
          "x": 54021.0,
          "y": 500.0
        },
        {
          "x": 54107.0,
          "y": 550.0
        },
        {
          "x": 54037.0,
          "y": 550.0
        },
        {
          "x": 54061.0,
          "y": 570.0
        },
        {
          "x": 54061.0,
          "y": 580.0
        },
        {
          "x": 54069.0,
          "y": 480.0
        },
        {
          "x": 54069.0,
          "y": 570.0
        },
        {
          "x": 54097.0,
          "y": 570.0
        },
        {
          "x": 55105.0,
          "y": 650.0
        },
        {
          "x": 55079.0,
          "y": 540.0
        },
        {
          "x": 55079.0,
          "y": 660.0
        },
        {
          "x": 55079.0,
          "y": 690.0
        },
        {
          "x": 55079.0,
          "y": 705.0
        },
        {
          "x": 55059.0,
          "y": 620.0
        },
        {
          "x": 55117.0,
          "y": 620.0
        },
        {
          "x": 55003.0,
          "y": 630.0
        },
        {
          "x": 55003.0,
          "y": 630.0
        },
        {
          "x": 55003.0,
          "y": 630.0
        },
        {
          "x": 55003.0,
          "y": 630.0
        },
        {
          "x": 55003.0,
          "y": 630.0
        },
        {
          "x": 55003.0,
          "y": 630.0
        },
        {
          "x": 55003.0,
          "y": 630.0
        },
        {
          "x": 55003.0,
          "y": 630.0
        },
        {
          "x": 55003.0,
          "y": 630.0
        },
        {
          "x": 55003.0,
          "y": 630.0
        },
        {
          "x": 55003.0,
          "y": 630.0
        },
        {
          "x": 55003.0,
          "y": 630.0
        },
        {
          "x": 55003.0,
          "y": 630.0
        },
        {
          "x": 55003.0,
          "y": 630.0
        },
        {
          "x": 55003.0,
          "y": 630.0
        },
        {
          "x": 55039.0,
          "y": 610.0
        },
        {
          "x": 55025.0,
          "y": 700.0
        },
        {
          "x": 56001.0,
          "y": 610.0
        },
        {
          "x": 72101.0,
          "y": 536.0
        },
        {
          "x": 72127.0,
          "y": 645.0
        },
        {
          "x": 12081.0,
          "y": 690.0
        },
        {
          "x": 6053.0,
          "y": 550.0
        },
        {
          "x": 55007.0,
          "y": 580.0
        },
        {
          "x": 55007.0,
          "y": 580.0
        },
        {
          "x": 55007.0,
          "y": 580.0
        },
        {
          "x": 6025.0,
          "y": 515.0
        },
        {
          "x": 6047.0,
          "y": 610.0
        }
      ]
    },
    {
      "format": {
        "feature": "us_counties.geo",
        "type": "topojson"
      },
      "name": "counties",
      "transform": [
        {
          "as": "value",
          "default": "noval",
          "key": "data.properties.FIPS",
          "type": "zip",
          "with": "table",
          "withKey": "data.x"
        },
        {
          "test": "d.path!='noval' && d.value!='noval'",
          "type": "filter"
        },
        {
          "projection": "albersUsa",
          "scale": 1100,
          "translate": [
            480,
            250
          ],
          "type": "geopath",
          "value": "data"
        }
      ],
      "url": "./datasets/maps/vincent_map_data-master/us_counties.topo.json"
    }
  ],
  "height": 500,
  "legends": [
    {
      "fill": "color",
      "offset": 0,
      "properties": {},
      "title": "75th Percentile of Math SAT Scores"
    }
  ],
  "marks": [
    {
      "from": {
        "data": "counties"
      },
      "properties": {
        "enter": {
          "path": {
            "field": "path"
          },
          "stroke": {
            "value": "#000000"
          },
          "strokeOpacity": {
            "value": 0.5
          }
        },
        "update": {
          "fill": {
            "field": "value.data.y",
            "scale": "color"
          }
        }
      },
      "type": "path"
    }
  ],
  "padding": "auto",
  "scales": [
    {
      "domain": [
        0,
        800
      ],
      "name": "color",
      "range": [
        "#f7fcf0",
        "#e0f3db",
        "#ccebc5",
        "#a8ddb5",
        "#7bccc4",
        "#4eb3d3",
        "#2b8cbe",
        "#0868ac",
        "#084081"
      ],
      "type": "quantize"
    }
  ],
  "width": 960
}